{
    'login_username': 'name.surname@usablenet.com', 
    'login_password': 'password_udevelop',
    'jira_password': 'password_jira',
    'login_uid': 'myuid_on_udevelop',
    'workspace_path': '/Volumes/yourname'
}